[
  {
    "ParameterKey": "ClusterName",
    "ParameterValue": "ocp4poc"
  },
  {
    "ParameterKey": "InfrastructureName",
    "ParameterValue": "ocp4poc-pdcfb"
  },
  {
    "ParameterKey": "HostedZoneId",
    "ParameterValue": "Z38PG1VDQQXT6U"
  },
  {
    "ParameterKey": "HostedZoneName",
    "ParameterValue": "awsdisconnected.lab"
  },
  {
    "ParameterKey": "PublicSubnets",
    "ParameterValue": "subnet-0575be21286d95ff3,subnet-0954b21bdaaffda69,subnet-03246a7788b988761"
  },
  {
    "ParameterKey": "PrivateSubnets",
    "ParameterValue": "subnet-0f55015915b054537,subnet-0b9f126f44ababee0,subnet-0c3245b25da5e75bf"
  },
  {
    "ParameterKey": "VpcId",
    "ParameterValue": "vpc-02502c5722aa6ebc3"
  }
]
