[
  {
    "ParameterKey": "KeyName",
    "ParameterValue": "OcpBastionHostKeyPair"
  },
  {
    "ParameterKey": "AmiImageId",
    "ParameterValue": "ami-0badcc5b522737046"
  },
  {
    "ParameterKey": "LocalSubnet",
    "ParameterValue": "subnet-05f51819eead853c3"
  },
  {
    "ParameterKey": "MasterSecurityGroupId",
    "ParameterValue": "sg-0b51c97cc3edffa45"
  },
  {
    "ParameterKey": "ClusterSecurityGroupId",
    "ParameterValue": "sg-029a838d1d819812b"
  },
  {
    "ParameterKey": "InstanceType",
    "ParameterValue": "t2.small"
  }
]
