[
  {
    "ParameterKey": "OpenCidr",
    "ParameterValue": "0.0.0.0/0"
  },
  {
  "ParameterKey": "VpcCidr",
  "ParameterValue": "10.0.0.0/16"
  },
  {
    "ParameterKey": "VpcId",
    "ParameterValue": "vpc-07aa5ce2a9d7d6350"
  }
]
